{
  // Use IntelliSense to learn about possible attributes.
  // Hover to view descriptions of existing attributes.
  // For more information, visit: <https://go.microsoft.com/fwlink/?linkid=830387>
  "version": "0.2.0",
  "configurations": [
    {
      "name": "GDB with Openocd",
      "type": "gdb",
      "request": "attach",
      "target": "localhost:3333",
      "remote": true,
      "cwd": "${workspaceRoot}",
      "gdbpath": "gdb-multiarch"
    },
    {
      "name": "GDB debug",
      "type": "cppdbg",
      "request": "launch",
      "program": "${config:PROGRAM.DIR}/${config:PROGRAM.NAME}",
      "stopAtEntry": true,
      "cwd": "${workspaceFolder}",
      "environment": [],
      "MIMode": "gdb",
      "targetArchitecture": "arm64",
      "preLaunchTask": "deploy-debug",
      "setupCommands": [
        {
          "description": "Enable pretty-printing for gdb",
          "text": "-enable-pretty-printing",
          "ignoreFailures": true
        }
      ],
      "miDebuggerPath": "/usr/bin/gdb-multiarch",
      "miDebuggerServerAddress": "${config:TARGET.IP}:6666",
    },
  ]
}